
T3170 000:526 SEGGER J-Link V5.12e Log File (0000ms, 0290ms total)
T3170 000:526 DLL Compiled: Apr 29 2016 15:03:58 (0000ms, 0290ms total)
T3170 000:526 Logging started @ 2021-12-23 14:00 (0000ms, 0290ms total)
T3170 000:526 JLINK_SetWarnOutHandler(...) (0000ms, 0290ms total)
T3170 000:526 JLINK_OpenEx(...)
Firmware: J-Link ARM V8 compiled Nov 28 2014 13:44:46
Hardware: V8.00
Feature(s): RDI,FlashDL,FlashBP,JFlash,GDB  returns O.K. (0278ms, 0568ms total)
T3170 000:804 JLINK_SetErrorOutHandler(...) (0000ms, 0568ms total)
T3170 000:804 JLINK_ExecCommand("ProjectFile = "E:\4常用资料\0公司芯片\GuiLibV1.1.5-A1150-A1180\模组 EP480320K035_201R\Loader\Project\M1130-EVAL\MDK-ARM\JLinkSettings.ini"", ...)Device "CORTEX-M0" selected.  returns 0x00 (0005ms, 0573ms total)
T3170 000:817 JLINK_ExecCommand("Device = ARMCM0", ...)Device "CORTEX-M0" selected.  returns 0x00 (0035ms, 0608ms total)
T3170 000:852 JLINK_ExecCommand("DisableConnectionTimeout", ...)  returns 0x01 (0000ms, 0608ms total)
T3170 000:852 JLINK_GetHardwareVersion()  returns 0x13880 (0000ms, 0608ms total)
T3170 000:852 JLINK_GetDLLVersion()  returns 51205 (0000ms, 0608ms total)
T3170 000:852 JLINK_GetFirmwareString(...) (0000ms, 0608ms total)
T3170 000:888 JLINK_GetDLLVersion()  returns 51205 (0000ms, 0608ms total)
T3170 000:888 JLINK_GetCompileDateTime() (0000ms, 0608ms total)
T3170 000:894 JLINK_GetFirmwareString(...) (0000ms, 0608ms total)
T3170 000:899 JLINK_GetHardwareVersion()  returns 0x13880 (0000ms, 0608ms total)
T3170 000:921 JLINK_TIF_Select(JLINKARM_TIF_SWD)  returns 0x00 (0000ms, 0608ms total)
T3170 000:921 JLINK_SetSpeed(1000) (0000ms, 0608ms total)
T3170 000:921 JLINK_GetId() >0x108 TIF> >0x108 TIF>
                JLINK_EMU_HasCapEx(0x0000002C)  returns 0x01 (0000ms, 0000ms total)
               >0x0D TIF> >0x0D TIF> >0x0D TIF> >0x0D TIF> >0x0D TIF> >0x0D TIF> >0x0D TIF> >0x0D TIF> >0x0D TIF> >0x0D TIF> >0x108 TIF> >0x108 TIF>  returns 0x00000000 (0262ms, 0870ms total)
T3170 002:405 JLINK_Close() (0000ms, 0870ms total)
T3170 002:405  (0000ms, 0870ms total)
T3170 002:405 Closed (0000ms, 0870ms total)
